…
as_tibble(neighborhoods) %>%
  left_join(as_tibble(rowData(fit)[,1:2]), by = c("name" = "gene_id")) %>%
  relocate(symbol, .before = "name") %>%
  arrange(pval) %>%
  dplyr::select(symbol, neighborhood, name, n_cells, pval, adj_pval, lfc, did_lfc) 
#> # A tibble: 300 × 8
#>    symbol neighborhood  name            n_cells     pval adj_pval    lfc did_lfc
#>    <chr>  <I<list>>     <chr>             <int>    <dbl>    <dbl>  <dbl>   <dbl>
#>  1 MT1X   <chr [2,941]> ENSG00000187193    2941  8.17e-6  0.00147  3.30  -0.471 
#>  2 KNG1   <chr [3,168]> ENSG00000113889    3168  1.07e-5  0.00147  3.76  -1.49  
#>  3 NEAT1  <chr [3,759]> ENSG00000245532    3759  2.39e-5  0.00218  1.84  -0.437 
#>  4 PMP2   <chr [3,587]> ENSG00000147588    3587  1.85e-4  0.0127  -1.20  -0.259 
#>  5 CXCL8  <chr [758]>   ENSG00000169429     758  5.02e-4  0.0215   1.69  -1.98  
#>  6 POLR2L <chr [3,367]> ENSG00000177700    3367  5.15e-4  0.0215   1.21   0.0500
#>  7 NUCKS1 <chr [3,536]> ENSG00000069275    3536  5.49e-4  0.0215  -1.07  -0.0461
#>  8 DNAJB1 <chr [1,691]> ENSG00000132002    1691  6.57e-4  0.0225   0.993 -0.464 
#>  9 CALM1  <chr [2,892]> ENSG00000198668    2892  7.43e-4  0.0226   0.829 -0.219 
#> 10 EEF1A1 <chr [2,903]> ENSG00000156508    2903  8.30e-4  0.0228  -0.636  0.232 
#> # ℹ 290 more rows
```
…
as_tibble(tum_nei) %>%
  left_join(as_tibble(rowData(fit)[,1:2]), by = c("name" = "gene_id")) %>%
  dplyr::relocate(symbol, .before = "name") %>%
  filter(adj_pval < 0.1) %>%
  arrange(did_pval)  %>%
  dplyr::select(symbol, name, neighborhood, n_cells, adj_pval, lfc, did_pval, did_lfc) %>%
  print(n = 10)
#> # A tibble: 17 × 8
#>    symbol name            neighborhood  n_cells adj_pval    lfc did_pval did_lfc
#>    <chr>  <chr>           <I<list>>       <int>    <dbl>  <dbl>    <dbl>   <dbl>
#>  1 RPS11  ENSG00000142534 <chr [2,228]>    2228  0.0436  -0.491   0.0571   0.333
#>  2 ATP5G3 ENSG00000154518 <chr [2,696]>    2696  0.0501   0.595   0.0856   0.403
#>  3 RPL10  ENSG00000147403 <chr [2,040]>    2040  0.0541  -0.546   0.126    0.321
#>  4 CALM1  ENSG00000198668 <chr [2,461]>    2461  0.0316   0.866   0.146   -0.464
#>  5 MT1X   ENSG00000187193 <chr [1,689]>    1689  0.00237  3.26    0.246   -0.541
#>  6 RPL6   ENSG00000089009 <chr [2,529]>    2529  0.0316  -0.605   0.261    0.203
#>  7 NEAT1  ENSG00000245532 <chr [2,408]>    2408  0.00237  1.83    0.418   -0.498
#>  8 KNG1   ENSG00000113889 <chr [2,697]>    2697  0.00237  3.59    0.449   -2.09 
#>  9 GPX1   ENSG00000233276 <chr [2,093]>    2093  0.0399  -0.810   0.519    0.220
#> 10 PMP2   ENSG00000147588 <chr [2,546]>    2546  0.00681 -1.32    0.558    0.186
#> # ℹ 7 more rows
```
…
